{
  "kind": "collectionType",
  "collectionName": "packages",
  "info": {
    "name": "Package",
    "description": ""
  },
  "options": {
    "increments": true,
    "timestamps": true,
    "draftAndPublish": false
  },
  "attributes": {
    "Name": {
      "type": "string",
      "required": true
    },
    "Weight": {
      "type": "decimal",
      "required": true
    },
    "Len": {
      "type": "decimal",
      "required": true
    },
    "Width": {
      "type": "float",
      "required": true
    },
    "Height": {
      "type": "decimal",
      "required": true
    }
  }
}
